Wall if more than five adjescent walls, space if less than three adjescent.
Unchanged if three, four, or five adjescent walls.
Cellulated 1 time.
#####  ##   ### #  #######################    #####  #   # #
#####  ##  ###    #   ###  ####### ######    ######  #  # ##
### # ###  ##     ##   ##     #    #####      ###### #### ##
##   ######        #######   #    ######         ###  #    #
#     ####### ###  #  ###   ##     ####                #   #
##     ##########  #  ##   #      ######           #       #
###    #########  #######   #   #########         ###       
####   ########## #######  ##    ####  #           # #      
###    ###  #####  ##########    ####  ## ###  ## ###       
##           ###  ###  #####     #### ######   ######       
##            ##  ##     ###      #########      ####      #
##                #       #    ## ########   ##  #####    ##
##                #            ### #######  #### # ###### ##
#        ##     #####  ###    ###  #######   ####  ##### ###
###      ###   ####### ##### #### #########     #  #####   #
###     ####   ####### ##### ######  ##### #        #####  #
#       # #    #####   ###### ####    ###  ## #    # #######
    ## #       ######   # ###   #     ##  ######    # ######
  # ####    #########  #   ##        ### ## #      #   #    
#### ###     #   #   ###  # ###    #######   #      # #     
##  # ###             #####   ##    #  ####    ##    ### ###
###    ####   #        #  #         #   ###   ####   #######
##    ####   ###    ###  #          ##  ##   #####    ## ###
##     #    #####       ####        # #  #    ######  ##   #
# #        #####        ####  ##  ##  ### #  #### ##  ###  #
##        ######        #  ### ####### ### #####       ##  #
#          ## ####          ############## ###  ##         #
#     ## #     ###        ########## #####  ##  #   ##     #
#    ######       #      ##########   ### #######    ##  ###
## # ######     ###  # ############  #############  ########

Wall if more than five adjescent walls, space if less than three adjescent.
Unchanged if three, four, or five adjescent walls.
Cellulated 900 times.
#######################################  #############   ###
##  #########      ####################  ######## ####   ###
##  #######         ####### ### # ###   ########   ###      
###########        ######    #     #     #######   ####     
###########      ########   #             ###############  #
####  #  #      #####      ###             ######## ########
###            ######       #     ##       ##   ##   #######
###     ##    ########     #     ####   #   #   ###    #####
##      ##   ########      ##  #####   ### ##  ####    #####
##       #######   #     ###   #####    ## ##  #####    ####
#####    #######        ####    ###    ###  #  #####     ###
#######   #######       ####    #     ###   ########      ##
##  ####    #####        #### ##      ####  ####  ###    ###
#   ####    ######        ##  ##      ##########  ####    ##
   ########  ####  #         ###       ##############      #
# #########  ###  ###        #         ###   ########     ##
  ########## #### ##        ##          #      ########   ##
   ##########    ###      ####                 ##  #####   #
  #   ######    #####    #####  ###           ###  #####   #
####  #####      ###     ####### ##           ###  ###      
###########              ######              ###   ###      
###########          ## #######     #        #### ###### ###
  #######      # #   ############# ### ###   ############ ##
  #######     #####  ########  #### #######  ############   
#########    #####   ########   ##     ###################  
############ ####    #########         ################### #
########## ## #     ##  ######        #################### #
#########          ###  ######         ########## ######    
##  ######       #####  ######        ##########           #
##  ##########   ############## #   #############   # # ####

Wall if more than four adjescent walls, space if less than three adjescent.
Unchanged if three or four adjescent walls.
Cellulated 900 times.
############################################################
############################################################
########################################  ##################
#######################################    #################
#######################################    #################
########################################  ##################
############################################################
############################################################
############################################################
############################################################
############################################################
############################################################
############################################################
############################################################
############################################################
############################################################
##########   ###############################################
#########     ##############################################
########      ##############################################
########     ###############################################
#########   ################################################
############################################################
#########################################    ###############
########################################      ##############
#######################################       ##############
#######################################       ##############
#######################################      ###############
########################################    ################
############################################################
############################################################


Wall if more than five adjescent walls, space if less than four adjescent.
Unchanged if four or five adjescent walls.
Cellulated 900 times.
#####################  #############   #####  #########     
####################   ######## ####    ###   #######       
######### ###   ###    #######   ##            ######      #
#######                ######                   ####       #
######                  ####                              ##
###                      ##                              ###
###                      ##                             ####
###                       #   ##       ##              #####
###                      ##  ####     ####             ###  
##                       ##  #####    ########          ##  
#                         #  #####     ########         ####
##                        ########      ####  ###        ###
##                        ####  ###           ####       ###
#                          ##   ###           #####      ###
##                             ####           ######     ###
##                            ####             ######     ##
##                           ####               #####      #
##                           ##                 #####       
##                          ###                 ####        
#                           ###              #######        
#                          ###              ########        
#                          ####             #######        #
#                          #####            #######       ##
#       ##                 ######           #######       ##
       ####                #######         #########       #
       #####               ########        #########        
       #####             ##########         ## ####         
        ###             ####### ##              ##         #
#      ####             ######                             #
#    ########           #######       ##     #####    ###  #


